<svg width="21" height="20" viewBox="0 0 21 20" fill="none" xmlns="http://www.w3.org/2000/svg">
<path d="M14.1666 1.66666C13.2916 1.66666 12.425 1.89166 11.6666 2.34166C11.3666 2.49999 11.0833 2.71666 10.8333 2.94999C10.5833 2.71666 10.3 2.49999 9.99997 2.34166C9.24164 1.89166 8.37497 1.66666 7.49997 1.66666C6.17389 1.66666 4.90212 2.19344 3.96444 3.13112C3.02675 4.0688 2.49997 5.34057 2.49997 6.66666C2.49997 7.99274 3.02675 9.26451 3.96444 10.2022C4.90212 11.1399 6.17389 11.6667 7.49997 11.6667V9.99999C6.61591 9.99999 5.76807 9.6488 5.14295 9.02368C4.51783 8.39856 4.16664 7.55071 4.16664 6.66666C4.16664 5.7826 4.51783 4.93475 5.14295 4.30963C5.76807 3.68451 6.61591 3.33332 7.49997 3.33332C7.973 3.33546 8.44024 3.43753 8.87108 3.63284C9.30191 3.82815 9.68661 4.1123 9.99997 4.46666V18.3333H11.6666V4.46666C11.7333 4.39166 11.8 4.31666 11.875 4.24999C12.1927 3.94813 12.5668 3.71189 12.9759 3.55478C13.385 3.39766 13.8211 3.32277 14.2592 3.33438C14.6973 3.34599 15.1288 3.44388 15.529 3.62244C15.9293 3.801 16.2904 4.05673 16.5916 4.37499C17.1993 5.01597 17.5276 5.87209 17.5041 6.75504C17.4807 7.63799 17.1075 8.47548 16.4666 9.08332C15.8333 9.67499 15.025 9.99999 14.1666 9.99999V11.6667C15.4927 11.6667 16.7645 11.1399 17.7022 10.2022C18.6399 9.26451 19.1666 7.99274 19.1666 6.66666C19.1666 5.34057 18.6399 4.0688 17.7022 3.13112C16.7645 2.19344 15.4927 1.66666 14.1666 1.66666Z" fill="white"/>
</svg>
