<svg width="21" height="21" viewBox="0 0 21 21" fill="none" xmlns="http://www.w3.org/2000/svg">
<path d="M13.825 7.76471C14.6904 7.24805 15.4072 6.51582 15.9052 5.63949C16.4033 4.76316 16.6656 3.77268 16.6666 2.76471H15C15 3.86978 14.561 4.92959 13.7796 5.71099C12.9982 6.49239 11.9384 6.93138 10.8333 6.93138C9.72823 6.93138 8.66842 6.49239 7.88702 5.71099C7.10562 4.92959 6.66663 3.86978 6.66663 2.76471H4.99996C4.99996 4.81471 6.0833 6.71471 7.84163 7.76471C5.07496 9.43138 4.16663 12.998 5.8333 15.7647C7.47496 18.5314 11.0583 19.4314 13.825 17.7647C16.5916 16.1314 17.5 12.548 15.8333 9.78138C15.3435 8.95139 14.6529 8.2579 13.825 7.76471ZM10.8333 16.9314C9.72823 16.9314 8.66842 16.4924 7.88702 15.711C7.10562 14.9296 6.66663 13.8698 6.66663 12.7647C6.66663 11.6596 7.10562 10.5998 7.88702 9.81843C8.66842 9.03703 9.72823 8.59804 10.8333 8.59804C11.9384 8.59804 12.9982 9.03703 13.7796 9.81843C14.561 10.5998 15 11.6596 15 12.7647C15 13.8698 14.561 14.9296 13.7796 15.711C12.9982 16.4924 11.9384 16.9314 10.8333 16.9314Z" fill="white"/>
</svg>
