<svg width="20" height="20" viewBox="0 0 20 20" fill="none" xmlns="http://www.w3.org/2000/svg">
<path d="M5.71921 8.01612C5.40809 7.86478 5.10436 7.76142 4.85072 7.5853C4.22321 7.15026 3.92896 6.52486 3.92421 5.76394C3.9207 5.27705 3.9207 4.79033 3.92421 4.30379C3.92738 3.87878 4.15993 3.63885 4.58389 3.64043C5.00785 3.64201 5.445 3.6167 5.86264 3.68472C6.82868 3.84292 7.51736 4.61333 7.63074 5.5952C7.63654 5.64793 7.64867 5.69591 7.6629 5.77607C7.89545 5.58992 8.11323 5.42276 8.31994 5.24295C8.35843 5.20973 8.36476 5.12483 8.36529 5.06419C8.36898 4.5896 8.36529 4.11501 8.36793 3.64359C8.36793 3.2539 8.60153 3.00817 8.98964 3.00501C9.81155 2.99833 10.6336 2.99833 11.4559 3.00501C11.8466 3.00817 12.0802 3.25179 12.0829 3.63779C12.0855 4.11238 12.0781 4.58696 12.0887 5.05786C12.0961 5.15014 12.1372 5.23647 12.2042 5.30043C12.3824 5.46337 12.5775 5.6068 12.7842 5.7708C12.7985 5.72741 12.8094 5.68298 12.8169 5.63791C12.8696 4.64866 13.7186 3.66205 14.9568 3.64096C15.279 3.63568 15.6012 3.63041 15.9233 3.64096C16.2756 3.6515 16.5166 3.8735 16.5234 4.22101C16.5345 4.8058 16.5477 5.39271 16.5108 5.97592C16.4507 6.93248 15.8073 7.67863 14.8808 7.927C14.8318 7.94018 14.7828 7.956 14.7226 7.97446C14.9249 8.60784 14.9249 9.28847 14.7226 9.92184C14.5184 10.5944 14.3159 11.267 14.1152 11.9399C13.8747 12.7383 13.6242 13.534 13.4028 14.3376C13.3416 14.5596 13.3611 14.8053 13.3542 15.0405C13.3284 15.9127 12.7673 16.6188 11.9221 16.8192C11.7488 16.8563 11.5719 16.8739 11.3947 16.8719C10.6185 16.8777 9.84231 16.8761 9.0661 16.8719C7.89703 16.8719 7.10342 16.0836 7.10711 14.9208C7.10844 14.6194 7.06363 14.3196 6.97422 14.0318C6.55764 12.6697 6.15372 11.3034 5.74083 9.93977C5.53992 9.29012 5.51883 8.63888 5.71921 8.01612ZM12.5791 12.8674C12.5975 12.8364 12.6136 12.8039 12.6271 12.7704C12.9561 11.6762 13.2931 10.5847 13.6084 9.48681C13.8067 8.79655 13.6786 8.14214 13.166 7.64119C12.6656 7.15342 12.0934 6.73895 11.5392 6.28071C11.2487 6.57601 10.9787 6.85391 10.704 7.12442C10.3876 7.44081 10.0617 7.43765 9.74212 7.11862C9.46791 6.84494 9.19635 6.56916 8.9174 6.28862C8.44281 6.66618 7.98615 7.02687 7.53319 7.39599C6.84082 7.96075 6.61143 8.7069 6.86613 9.56485C7.17443 10.6037 7.48519 11.6407 7.79842 12.676C7.81635 12.7361 7.84167 12.7936 7.86856 12.8664C8.26879 12.5748 8.70805 12.5031 9.17262 12.5078C9.84969 12.5152 10.5278 12.5168 11.2049 12.5078C11.6943 12.5062 12.163 12.5627 12.5791 12.8664V12.8674ZM10.2352 13.7006C9.82122 13.7006 9.40727 13.6953 8.99333 13.7006C8.55934 13.708 8.29147 13.9785 8.28514 14.4041C8.28198 14.6013 8.28145 14.7985 8.28514 14.9952C8.29252 15.3907 8.55196 15.6807 8.94376 15.6865C9.79802 15.6988 10.6523 15.6988 11.5065 15.6865C11.8978 15.6812 12.1578 15.3901 12.1657 14.9952C12.1694 14.8117 12.1657 14.6261 12.1657 14.4436C12.162 13.969 11.8978 13.7054 11.4174 13.6996C11.0235 13.6969 10.6296 13.6996 10.2352 13.6996V13.7006ZM5.10699 4.8501C5.10699 5.14698 5.10699 5.43542 5.10699 5.72386C5.11121 6.42625 5.58158 6.86287 6.28133 6.81541C6.41316 6.80645 6.46905 6.75003 6.46641 6.6182C6.4622 6.39514 6.46641 6.17156 6.46641 5.9485C6.4643 5.15225 5.92486 4.70508 5.10699 4.84904V4.8501ZM15.3169 4.83006C15.1782 4.83006 15.0475 4.82109 14.9178 4.83006C14.42 4.87013 14.0519 5.20551 14.0023 5.70066C13.9787 6.02162 13.9753 6.34375 13.9923 6.66513C14.0005 6.69717 14.0164 6.72671 14.0386 6.75117C14.0609 6.77563 14.0888 6.79425 14.1199 6.80539C14.6367 6.92562 15.2421 6.54912 15.3074 6.02549C15.3554 5.64002 15.3169 5.24295 15.3169 4.82901V4.83006ZM10.2325 5.94956C10.4519 5.72123 10.6544 5.51505 10.8495 5.3057C10.8763 5.27811 10.8928 5.24221 10.8964 5.20393C10.8996 4.87172 10.8964 4.53951 10.8964 4.20202H9.54965C9.54965 4.54214 9.54965 4.86908 9.55281 5.19602C9.56032 5.24622 9.58446 5.29246 9.62137 5.32732C9.81331 5.52401 10.0079 5.7207 10.2325 5.9485V5.94956Z" fill="#B7BABC"/>
<path d="M8.32272 8.71333C8.40042 8.71392 8.47724 8.72981 8.5488 8.76009C8.62035 8.79036 8.68525 8.83444 8.73977 8.8898C8.79429 8.94515 8.83738 9.0107 8.86657 9.08271C8.89576 9.15472 8.91048 9.23177 8.90989 9.30947C8.9093 9.38716 8.89342 9.46398 8.86314 9.53554C8.83286 9.6071 8.78879 9.67199 8.73343 9.72652C8.67807 9.78104 8.61252 9.82413 8.54051 9.85332C8.4685 9.88251 8.39145 9.89723 8.31376 9.89664C8.15684 9.89545 8.00683 9.83197 7.89671 9.72018C7.78659 9.60838 7.7254 9.45742 7.72659 9.3005C7.72778 9.14359 7.79125 8.99357 7.90305 8.88345C8.01485 8.77334 8.16581 8.71215 8.32272 8.71333Z" fill="#B7BABC"/>
<path d="M12.7158 9.31242C12.7143 9.46796 12.6514 9.61658 12.5408 9.72592C12.4301 9.83526 12.2808 9.89645 12.1253 9.89617C12.0462 9.89727 11.9678 9.88253 11.8945 9.85282C11.8213 9.8231 11.7548 9.77901 11.6988 9.72316C11.6429 9.6673 11.5988 9.6008 11.569 9.52759C11.5392 9.45439 11.5244 9.37595 11.5254 9.29692C11.5264 9.21789 11.5432 9.13987 11.5749 9.06746C11.6066 8.99505 11.6525 8.92971 11.7098 8.87532C11.7671 8.82093 11.8348 8.77857 11.9088 8.75076C11.9828 8.72295 12.0616 8.71024 12.1405 8.71339C12.2961 8.71699 12.444 8.78201 12.5518 8.89425C12.6595 9.00649 12.7185 9.15683 12.7158 9.31242Z" fill="#B7BABC"/>
</svg>
