<svg width="20" height="20" viewBox="0 0 20 20" fill="none" xmlns="http://www.w3.org/2000/svg">
<path d="M4.26242 6.10764C4.23561 5.69636 4.16203 5.29306 4.19283 4.89776C4.2687 3.9343 4.76668 3.21727 5.60864 2.75066C6.04273 2.50994 6.4928 2.29432 6.94002 2.07927C7.41633 1.8511 7.88636 2.13631 7.8972 2.66852C7.90747 3.18191 7.8972 3.69529 7.90405 4.20469C7.90405 4.28512 7.9377 4.39521 7.99531 4.4397C8.65473 4.94625 9.32156 5.44252 9.99923 5.95134L11.2633 5.00443C11.4915 4.8333 11.7134 4.6559 11.9478 4.49618C12.0699 4.41289 12.1041 4.31649 12.1018 4.17617C12.0944 3.69244 12.0967 3.20643 12.1018 2.72499C12.1058 2.12661 12.5679 1.83969 13.1047 2.10208C13.5005 2.29546 13.8958 2.48998 14.2877 2.69134C15.5295 3.33022 16.0891 4.61426 15.7138 5.95819C15.703 5.99869 15.691 6.03805 15.6687 6.11448H15.9733C16.493 6.11448 17.0121 6.11049 17.5312 6.11448C17.8814 6.11848 18.1529 6.33353 18.1752 6.67236C18.2265 7.45043 18.2037 8.22279 17.8329 8.94039C17.3566 9.85593 16.6231 10.4515 15.6271 10.7144C15.4771 10.7538 15.4371 10.8125 15.4406 10.958C15.4497 11.3573 15.4406 11.7566 15.4451 12.1559C15.449 12.2697 15.4282 12.3831 15.3842 12.4881C15.3402 12.5932 15.274 12.6875 15.1901 12.7645C14.873 13.0714 14.5712 13.392 14.2501 13.6955C14.1817 13.754 14.1284 13.8282 14.0949 13.9117C14.0613 13.9952 14.0484 14.0856 14.0573 14.1752C14.1143 15.5351 13.2233 16.6691 11.8896 16.9435C11.7083 16.9791 11.5239 16.9969 11.3392 16.9966C10.4499 17.0017 9.56057 17.0006 8.67127 16.9966C7.07407 16.9926 5.87217 15.7416 5.9412 14.1444C5.95015 14.0652 5.93984 13.985 5.91114 13.9106C5.88243 13.8362 5.83619 13.7698 5.77634 13.7172C5.4455 13.404 5.13347 13.072 4.80661 12.7554C4.72521 12.6811 4.66077 12.59 4.61766 12.4886C4.57455 12.3871 4.55378 12.2775 4.55677 12.1673C4.56076 11.7617 4.55391 11.3562 4.55677 10.9512C4.55677 10.8205 4.53224 10.7566 4.38564 10.7178C2.8238 10.3089 1.81186 8.98774 1.80673 7.36886C1.80673 7.16978 1.80159 6.96956 1.80673 6.77105C1.81984 6.37916 2.07939 6.11848 2.47128 6.11391C3.01889 6.10821 3.5665 6.11391 4.11411 6.11391C4.18085 6.11391 4.24588 6.10821 4.26242 6.10764ZM13.565 12.5906C13.7059 12.4445 13.885 12.2711 14.0476 12.0835C14.1105 12.0115 14.1483 11.921 14.1554 11.8256C14.1628 10.8371 14.1668 9.84851 14.1554 8.85939C14.1474 7.9872 13.5599 7.40023 12.6905 7.39738C10.8982 7.39129 9.10575 7.39129 7.31308 7.39738C6.43006 7.40023 5.84536 7.98663 5.83852 8.87194C5.8311 9.85365 5.83852 10.8354 5.83852 11.8165C5.83852 11.8787 5.8351 11.9614 5.87103 11.999C6.07354 12.2141 6.28745 12.4177 6.49851 12.6265C7.29083 11.8125 7.79566 11.5997 8.9177 11.5997H11.3078C11.7248 11.5997 12.1418 11.6505 12.5057 11.857C12.8696 12.0635 13.1874 12.3253 13.565 12.5906ZM9.99581 12.8792C9.56172 12.8792 9.12819 12.8741 8.69466 12.8821C8.53868 12.8828 8.38343 12.9033 8.23261 12.9431C7.5481 13.137 7.14024 13.7759 7.22523 14.4998C7.30395 15.1689 7.89206 15.7023 8.60624 15.7142C9.53775 15.7291 10.4693 15.7194 11.4013 15.7142C11.5222 15.7112 11.6421 15.692 11.7579 15.6572C12.4487 15.4627 12.8679 14.8107 12.7738 14.0857C12.6871 13.4137 12.099 12.8975 11.3831 12.8803C10.9199 12.8706 10.4579 12.8798 9.99581 12.8792ZM13.3807 3.69529C13.3807 4.01245 13.3716 4.30965 13.3807 4.60798C13.3899 4.90632 13.2763 5.10996 13.043 5.27595C12.7772 5.46476 12.5194 5.66556 12.2581 5.86121L11.9809 6.07284L11.9992 6.11848H13.8422C14.2415 6.11848 14.2843 6.08824 14.4372 5.71918C14.7817 4.89262 14.3488 4.04325 13.3807 3.69301V3.69529ZM6.61887 3.66848C6.41408 3.77858 6.24467 3.85444 6.09236 3.9537C5.77584 4.16614 5.55523 4.49422 5.47791 4.8675C5.40059 5.24078 5.47271 5.6295 5.6788 5.9502C5.70801 6.00578 5.75285 6.0516 5.80779 6.08201C5.86272 6.11242 5.92536 6.12609 5.98797 6.12133C6.5276 6.11106 7.06722 6.11734 7.60685 6.11734H8.05749C7.96622 6.03919 7.9223 5.99755 7.87381 5.96161C7.56806 5.73344 7.26459 5.49614 6.95257 5.27367C6.71983 5.10654 6.60461 4.89547 6.61601 4.60456C6.62742 4.31364 6.61887 4.00903 6.61887 3.6662V3.66848ZM4.56133 9.41442C4.5368 8.71051 4.55334 8.03055 4.95264 7.41392H3.09989C3.08163 8.3249 3.74961 9.25184 4.56133 9.41442ZM15.0413 7.40651C15.4525 8.03398 15.4554 8.71849 15.4406 9.41271C16.2489 9.25527 16.9881 8.21481 16.8803 7.40651H15.0413Z" fill="#B7BABC"/>
<path d="M7.59747 8.85658C7.76706 8.85772 7.92925 8.92618 8.04837 9.0469C8.16749 9.16762 8.23377 9.33072 8.23264 9.50031C8.2315 9.6699 8.16305 9.8321 8.04232 9.95122C7.9216 10.0703 7.7585 10.1366 7.58891 10.1355C7.50493 10.1349 7.42189 10.1178 7.34453 10.0852C7.26716 10.0525 7.19698 10.0049 7.138 9.94517C7.07902 9.88539 7.03239 9.81459 7.00077 9.73679C6.96916 9.65899 6.95317 9.57573 6.95373 9.49176C6.9543 9.40778 6.97139 9.32474 7.00405 9.24737C7.0367 9.17001 7.08427 9.09983 7.14405 9.04085C7.20383 8.98187 7.27464 8.93523 7.35243 8.90362C7.43023 8.872 7.51349 8.85602 7.59747 8.85658Z" fill="#B7BABC"/>
<path d="M13.0361 9.49787C13.0369 9.66616 12.9709 9.8279 12.8527 9.94765C12.7344 10.0674 12.5735 10.1354 12.4052 10.1368C12.2356 10.1368 12.073 10.0694 11.9531 9.94946C11.8331 9.82954 11.7658 9.66689 11.7658 9.4973C11.7658 9.32771 11.8331 9.16506 11.9531 9.04514C12.073 8.92522 12.2356 8.85785 12.4052 8.85785C12.5737 8.85921 12.7348 8.92736 12.8531 9.04736C12.9714 9.16735 13.0372 9.32938 13.0361 9.49787Z" fill="#B7BABC"/>
</svg>
