<svg width="20" height="20" viewBox="0 0 20 20" fill="none" xmlns="http://www.w3.org/2000/svg">
<path d="M8.54891 5.80761H11.4412C11.4447 5.72564 11.4517 5.64894 11.4517 5.57341C11.4517 4.96744 11.4517 4.36147 11.4517 3.7555C11.4517 3.24438 11.7374 2.97857 12.2532 3.00199C14.704 3.11382 16.5986 4.82342 16.9517 7.24847C16.9825 7.47999 16.997 7.71339 16.995 7.94694C16.9991 9.31228 17.0038 10.6776 16.995 12.0453C16.9804 14.4586 15.3902 16.4159 13.0507 16.8942C12.7289 16.9565 12.4018 16.9875 12.0741 16.9867C10.6943 16.9965 9.31432 16.9965 7.93415 16.9867C5.53369 16.9686 3.5817 15.3778 3.10395 13.047C3.03917 12.7102 3.00701 12.3678 3.00794 12.0248C2.9974 10.6671 2.99857 9.30877 3.00442 7.95104C3.01555 5.53185 4.59517 3.57927 6.9365 3.09567C7.23048 3.04003 7.52849 3.00831 7.8276 3.00082C8.25851 2.98267 8.54364 3.26663 8.54773 3.7034C8.553 4.31698 8.54773 4.9329 8.54773 5.54356L8.54891 5.80761ZM10.0056 15.6747C10.6923 15.6747 11.3785 15.6799 12.0653 15.6747C13.8803 15.6595 15.3399 14.4633 15.6186 12.6723C15.7292 11.9586 15.7099 11.2133 15.6619 10.4879C15.5319 8.52774 14.019 7.14074 12.0548 7.1343C10.6162 7.1302 9.17712 7.11615 7.73919 7.14191C6.10687 7.17119 4.64318 8.40889 4.40372 10.0195C4.29072 10.7807 4.29189 11.5658 4.34517 12.3334C4.47456 14.2654 5.98802 15.6513 7.92654 15.6706C8.61799 15.6811 9.31178 15.6747 10.0056 15.6747ZM7.22397 4.36967C6.18826 4.61908 5.38264 5.14602 4.82877 6.03243C4.54365 6.4891 4.36508 7.05702 4.41308 7.18641C4.83697 6.90421 5.24856 6.56931 5.71226 6.33863C6.17596 6.10796 6.70113 5.97505 7.22397 5.79121V4.36967ZM12.7813 4.39894V5.86264C13.8779 6.02131 14.8077 6.49554 15.6033 7.2795C15.5577 6.00667 14.0407 4.47506 12.7813 4.39894Z" fill="#B7BABC" stroke="#B7BABC" strokeWidth="0.0204917" stroke-miterlimit="10"/>
<path d="M12.5111 9.84026C12.9322 10.1509 13.239 10.5919 13.3839 11.0948C13.5287 11.5976 13.5034 12.1342 13.312 12.6213C13.145 13.0648 12.8492 13.4483 12.4625 13.7224C12.0759 13.9965 11.6161 14.1486 11.1422 14.1593C10.3905 14.1769 9.63835 14.1769 8.88581 14.1593C8.40651 14.1493 7.94112 13.9963 7.54928 13.7201C7.15744 13.4439 6.85699 13.057 6.68642 12.6089C6.51586 12.1609 6.48294 11.6721 6.5919 11.2052C6.70086 10.7384 6.94672 10.3147 7.298 9.98839L7.31673 9.97141C7.58856 9.72823 7.91088 9.54827 8.26052 9.44448C8.34003 9.41997 8.42098 9.40042 8.50291 9.38593C8.83898 9.33324 9.18558 9.34026 9.52808 9.33558C10.0246 9.32856 10.5234 9.33558 11.0181 9.33558C11.2839 9.33558 11.668 9.44507 11.9414 9.53757C12.147 9.60757 12.3399 9.71017 12.5129 9.84143L12.5111 9.84026ZM10.0012 12.8508C10.3524 12.8508 10.7037 12.8566 11.055 12.8508C11.699 12.8379 12.1633 12.3619 12.1575 11.7384C12.151 11.1295 11.6727 10.6588 11.0451 10.6541C10.3511 10.6494 9.65728 10.6494 8.96368 10.6541C8.33547 10.6588 7.85713 11.1301 7.85127 11.739C7.84483 12.3648 8.31205 12.8408 8.95373 12.8514C9.29975 12.8566 9.65045 12.8514 10.0012 12.8508Z" fill="#B7BABC" stroke="#B7BABC" strokeWidth="0.0204917" stroke-miterlimit="10"/>
<path d="M7.06645 9.7643C7.42634 9.7643 7.71809 9.47256 7.71809 9.11267C7.71809 8.75278 7.42634 8.46103 7.06645 8.46103C6.70656 8.46103 6.41481 8.75278 6.41481 9.11267C6.41481 9.47256 6.70656 9.7643 7.06645 9.7643Z" fill="#B7BABC" stroke="#B7BABC" strokeWidth="0.0204917" stroke-miterlimit="10"/>
<path d="M12.9151 9.7643C13.275 9.7643 13.5667 9.47256 13.5667 9.11267C13.5667 8.75278 13.275 8.46103 12.9151 8.46103C12.5552 8.46103 12.2635 8.75278 12.2635 9.11267C12.2635 9.47256 12.5552 9.7643 12.9151 9.7643Z" fill="#B7BABC" stroke="#B7BABC" strokeWidth="0.0204917" stroke-miterlimit="10"/>
<path d="M10.8521 12.2549C11.1292 12.2549 11.3539 12.0303 11.3539 11.7532C11.3539 11.476 11.1292 11.2514 10.8521 11.2514C10.575 11.2514 10.3504 11.476 10.3504 11.7532C10.3504 12.0303 10.575 12.2549 10.8521 12.2549Z" fill="#B7BABC" stroke="#B7BABC" strokeWidth="0.0204917" stroke-miterlimit="10"/>
<path d="M9.24669 12.2549C9.5238 12.2549 9.74844 12.0303 9.74844 11.7532C9.74844 11.476 9.5238 11.2514 9.24669 11.2514C8.96958 11.2514 8.74493 11.476 8.74493 11.7532C8.74493 12.0303 8.96958 12.2549 9.24669 12.2549Z" fill="#B7BABC" stroke="#B7BABC" strokeWidth="0.0204917" stroke-miterlimit="10"/>
</svg>
