<svg width="21" height="20" viewBox="0 0 21 20" fill="none" xmlns="http://www.w3.org/2000/svg">
<path d="M10.2937 7.47664H11.7213V7.26505C11.7213 6.49236 11.7084 5.71912 11.7252 4.94644C11.7581 3.41894 13.4129 2.49998 14.7087 3.2883C15.296 3.64505 15.6405 4.18157 15.6495 4.86884C15.6695 6.47003 15.6617 8.07179 15.6584 9.67354C15.6551 9.83187 15.7065 9.98649 15.8041 10.1112C16.6583 11.2747 17.0753 12.575 16.9888 14.0227C16.8844 15.7707 15.4853 17.3244 13.7563 17.6148C13.4957 17.6599 13.2319 17.684 12.9674 17.6868C11.6582 17.694 10.349 17.6968 9.03921 17.6868C7.09019 17.6751 5.48454 16.3949 5.09596 14.5078C4.8598 13.3583 5.0753 12.2478 5.5694 11.1966C5.75419 10.8024 6.01603 10.4462 6.23488 10.0666C6.29934 9.96429 6.33769 9.84772 6.34654 9.72714C6.3538 8.16725 6.34655 6.60737 6.35269 5.04749C6.35269 4.08052 6.92159 3.31063 7.78807 3.07503C8.07915 2.99313 8.38518 2.97946 8.68241 3.03506C8.97963 3.09066 9.26004 3.21404 9.50183 3.39561C9.74363 3.57719 9.9403 3.81207 10.0766 4.082C10.2128 4.35193 10.285 4.64965 10.2876 4.95202C10.3026 5.71801 10.2909 6.48399 10.2915 7.25053L10.2937 7.47664ZM11.6448 16.4323C12.14 16.4323 12.6268 16.4513 13.1109 16.4289C14.4463 16.367 15.5411 15.4117 15.7159 14.1193C15.8532 13.1048 15.5891 12.1613 15.0839 11.2775C14.6054 10.4401 13.8685 9.87062 13.0924 9.34694C12.1361 8.70154 11.0898 8.5575 9.97883 8.85005C9.30887 9.02647 8.7729 9.44017 8.23471 9.8494C6.98691 10.7985 6.3231 12.0474 6.26503 13.6157C6.21814 14.8919 7.09299 16.094 8.34469 16.339C8.9979 16.4675 9.6846 16.4328 10.3652 16.4725V14.3258C10.2468 14.3258 10.1418 14.3258 10.0402 14.3258C9.64942 14.318 9.37474 14.0618 9.37586 13.7011C9.37698 13.3404 9.65501 13.0814 10.0458 13.0741C10.3384 13.0685 10.6309 13.0741 10.9235 13.0741C11.2858 13.0741 11.6492 13.0658 12.0099 13.0775C12.384 13.0892 12.648 13.3678 12.6408 13.719C12.6335 14.0701 12.3689 14.3163 12.0015 14.3269C11.8854 14.3303 11.7693 14.3269 11.6465 14.3269L11.6448 16.4323ZM7.60774 8.73448C7.66692 8.70043 7.6898 8.6887 7.71158 8.67475C8.12248 8.41625 8.53562 8.16055 8.93983 7.89313C8.96713 7.87153 8.98957 7.84439 9.00564 7.8135C9.0217 7.78261 9.03105 7.74868 9.03307 7.71392C9.0394 6.80166 9.0394 5.88977 9.03307 4.97826C9.03638 4.85893 9.00857 4.74079 8.95238 4.63546C8.89619 4.53014 8.81357 4.44125 8.71261 4.37753C8.60503 4.30601 8.48004 4.26506 8.351 4.25906C8.22196 4.25306 8.0937 4.28224 7.97996 4.34347C7.86621 4.4047 7.77123 4.49569 7.70518 4.60671C7.63913 4.71773 7.60448 4.84461 7.60495 4.9738C7.60495 5.64375 7.60495 6.31371 7.60495 6.9792L7.60774 8.73448ZM14.4005 8.73448C14.4005 7.42528 14.4078 6.1585 14.391 4.89173C14.391 4.74489 14.285 4.57238 14.1783 4.45849C13.9757 4.24187 13.706 4.19832 13.4291 4.3111C13.1259 4.43448 12.978 4.67511 12.9769 4.9978C12.973 5.88214 12.9802 6.76649 12.9713 7.65083C12.9713 7.80883 13.0215 7.88252 13.1622 7.94505C13.3519 8.03204 13.5345 8.13377 13.7083 8.24932C13.9338 8.39671 14.1493 8.5603 14.4011 8.7356L14.4005 8.73448Z" fill="#B7BABC"/>
<path d="M8.99213 11.0597C9.15675 11.0629 9.31384 11.1293 9.43094 11.245C9.54805 11.3608 9.61619 11.5171 9.62132 11.6817C9.62035 11.8464 9.55529 12.0042 9.43993 12.1218C9.32456 12.2393 9.16795 12.3074 9.00329 12.3114C8.92017 12.3129 8.83759 12.2977 8.76046 12.2667C8.68332 12.2357 8.6132 12.1895 8.55426 12.1309C8.49531 12.0722 8.44874 12.0024 8.41731 11.9254C8.38589 11.8484 8.37024 11.7659 8.3713 11.6828C8.37289 11.5184 8.43874 11.3612 8.55476 11.2448C8.67078 11.1283 8.82777 11.0619 8.99213 11.0597Z" fill="#B7BABC"/>
<path d="M13.6444 11.7057C13.6425 11.7872 13.6246 11.8676 13.5916 11.9422C13.5586 12.0168 13.5112 12.0842 13.4521 12.1405C13.3931 12.1967 13.3235 12.2408 13.2474 12.2701C13.1712 12.2995 13.0901 12.3135 13.0085 12.3114C12.8442 12.3064 12.6882 12.2376 12.5736 12.1197C12.459 12.0017 12.3948 11.8439 12.3944 11.6794C12.4004 11.515 12.4692 11.359 12.5866 11.2438C12.7041 11.1285 12.8613 11.0626 13.0258 11.0597C13.1091 11.0609 13.1912 11.0786 13.2676 11.1118C13.3439 11.145 13.4128 11.193 13.4704 11.2532C13.528 11.3133 13.573 11.3842 13.6029 11.4619C13.6328 11.5396 13.6469 11.6225 13.6444 11.7057Z" fill="#B7BABC"/>
</svg>
