<svg width="20" height="20" viewBox="0 0 20 20" fill="none" xmlns="http://www.w3.org/2000/svg">
<path d="M13.7526 9.56982V17.4102H12.2951V9.55778H10.6892C10.6892 10.0451 10.6892 14.1769 10.6892 14.1769L10.0206 13.3271L9.29251 14.1744C9.29251 14.1744 9.26589 9.71938 9.26589 9.55462H7.65878V17.4064H6.21201V9.54828" fill="#B7BABC"/>
<path d="M7.68709 5.52541C7.87508 5.52389 8.05603 5.59681 8.19044 5.72825C8.32484 5.85968 8.40179 6.03896 8.40446 6.22694C8.40113 6.4148 8.32562 6.59417 8.19359 6.72785C8.06156 6.86154 7.88314 6.93927 7.69533 6.94494C7.50744 6.94378 7.32755 6.86876 7.19451 6.73608C7.06147 6.60339 6.98596 6.4237 6.9843 6.23581C6.98321 6.14286 7.00059 6.05061 7.03542 5.96443C7.07026 5.87824 7.12187 5.79984 7.18725 5.73375C7.25262 5.66767 7.33047 5.61522 7.41628 5.57946C7.50208 5.54369 7.59413 5.52532 7.68709 5.52541Z" fill="#B7BABC"/>
<path d="M12.2765 5.52524C12.3695 5.52614 12.4614 5.54554 12.5469 5.58232C12.6323 5.6191 12.7096 5.67252 12.7742 5.73947C12.8387 5.80641 12.8894 5.88555 12.9231 5.97226C12.9567 6.05897 12.9728 6.15152 12.9704 6.24451C12.9657 6.432 12.8876 6.61015 12.7528 6.74055C12.618 6.87095 12.4374 6.94316 12.2499 6.9416C12.0625 6.93314 11.8857 6.85294 11.7559 6.71761C11.6261 6.58229 11.5534 6.40222 11.5528 6.21473C11.5587 6.02781 11.638 5.85073 11.7734 5.72173C11.9088 5.59273 12.0895 5.52215 12.2765 5.52524Z" fill="#B7BABC"/>
<path d="M11.9339 10.6703C11.4428 10.6703 11.0194 10.4929 10.6981 10.3592C10.4922 10.273 10.2799 10.1849 10.1513 10.1849H9.8515C9.72476 10.1849 9.50993 10.273 9.30461 10.3592C8.79003 10.5734 8.01309 10.8978 7.11955 10.4308C6.25326 9.97831 5.4497 8.86107 4.58975 6.91492C3.82929 5.19121 3.80394 3.8471 4.51561 2.92251C5.63348 1.46496 8.16138 1.61578 9.56887 1.83441C9.84016 1.87655 10.1163 1.87655 10.3876 1.83441C11.8084 1.61515 14.3598 1.46496 15.4833 2.93011C16.195 3.85851 16.1716 5.20009 15.4124 6.91809C14.5531 8.86424 13.7489 9.98148 12.8826 10.434C12.5906 10.5895 12.2647 10.6707 11.9339 10.6703ZM9.8515 8.91747H10.1513C10.5315 8.91747 10.8807 9.06196 11.1861 9.18933C11.6608 9.38769 11.9466 9.49035 12.2957 9.30784C12.6956 9.09871 13.3598 8.42507 14.2533 6.40288C14.6367 5.53532 14.9865 4.36168 14.4776 3.69881C14.1018 3.20831 13.3135 3.04101 12.7191 2.98714C11.8889 2.91237 11.0232 3.01566 10.5815 3.0841C10.1815 3.1462 9.77433 3.1462 9.37431 3.0841C8.93705 3.0163 8.0809 2.913 7.2596 2.98778C6.67214 3.04101 5.89331 3.20641 5.52131 3.6912C5.01434 4.35471 5.36415 5.53215 5.74945 6.40351C6.64236 8.42571 7.3065 9.09935 7.70637 9.30847C8.05682 9.49098 8.34009 9.38769 8.81601 9.18997C9.1221 9.06196 9.46874 8.91747 9.8515 8.91747Z" fill="#B7BABC"/>
</svg>
